<svg xmlns="http://www.w3.org/2000/svg" xmlns:xlink="http://www.w3.org/1999/xlink" viewBox="0 0 584 1135">
  <g id="Artboard_1_1" data-name="Artboard 1 – 1" clip-path="url(#clip-Artboard_1_1)">
    <g id="OBJECT" transform="translate(-1363.941 -264.428)">
      <g id="Group_3" data-name="Group 3">
        <path id="Path_1" data-name="Path 1" d="M1794.426,1185.082,1849.558,1402H1724.18l-85.148-169.02Z" fill="#2b225d"/>
        <path id="Path_2" data-name="Path 2" d="M1622.066,1253.869,1547.863,1402l-127.662-.271,60.913-211.353Z" fill="#2b225d"/>
        <path id="Path_3" data-name="Path 3" d="M1523.467,938.961l-82.87,379.133s380.475,12.43,473.551-183.352L1666.338,930.33Z" fill="#c7d6e0"/>
        <g id="Group_1" data-name="Group 1">
          <line id="Line_1" data-name="Line 1" x1="51.794" y2="368.237" transform="translate(1497.57 948.932)" fill="none" stroke="#29272c" stroke-miterlimit="10" stroke-width="2"/>
          <line id="Line_2" data-name="Line 2" x1="5.599" y2="359.242" transform="translate(1564.483 952.616)" fill="none" stroke="#29272c" stroke-miterlimit="10" stroke-width="2"/>
          <line id="Line_3" data-name="Line 3" x2="31.731" y2="351.536" transform="translate(1590.335 952.12)" fill="none" stroke="#29272c" stroke-miterlimit="10" stroke-width="2"/>
          <line id="Line_4" data-name="Line 4" x2="70.396" y2="337.069" transform="translate(1617.958 952.12)" fill="none" stroke="#29272c" stroke-miterlimit="10" stroke-width="2"/>
          <line id="Line_5" data-name="Line 5" x2="96.544" y2="327.321" transform="translate(1647.75 944.141)" fill="none" stroke="#29272c" stroke-miterlimit="10" stroke-width="2"/>
          <line id="Line_6" data-name="Line 6" x2="121.744" y2="318.953" transform="translate(1672.896 930.33)" fill="none" stroke="#29272c" stroke-miterlimit="10" stroke-width="2"/>
          <path id="Path_4" data-name="Path 4" d="M1891.116,1172.206,1686,934.817l163.56,279.262" fill="none" stroke="#29272c" stroke-miterlimit="10" stroke-width="2"/>
        </g>
        <path id="Path_5" data-name="Path 5" d="M1548.581,583.763s-61.237,60.866-78.866,89.629-27.836,36.186-27.836,36.186-.928-14.89-12.988-55.693-15.774-150.493-15.774-150.493,4.639-21.135,6.494-28.558-1.855-17.628-1.855-17.628l-4.639-6.495s7.422-34.948,3.711-39.278-11.134,29.071-14.846,34.639-12.06,4.639-12.06,4.639l-8.353,9.278-8.349,3.711-9.279,18.261a119.2,119.2,0,0,0,9.279,21.431c5.567,9.484,5.567,28.646,5.567,28.646s-5.567,136.178,0,187.94,12.989,74.032,43.608,74.96,86.289-51.96,119.692-82.578S1566.209,601.763,1548.581,583.763Z" fill="#2b225d"/>
        <path id="Path_6" data-name="Path 6" d="M1586.623,458.135s-45.772-3.713-29.689-43.918c0,0-15.464-2.474-6.187-18.556,0,0-17.063-11.135-2.965-23.506,0,0-35.774-24.742-5.58-54.432s44.421-19.794,44.421-19.794,13.609-34.021,53.817-25.981c0,0,24.741-16.067,42.06-1.23,0,0,41.443-18.564,59.381,12.364s12.99,32.784,12.99,32.784,31.547-5.567,40.824,17.319-14.843,45.155-14.843,45.155,29.07-8.041,28.452,22.887c0,0,0,11.753-10.515,12.99,0,0,24.125,27.216,8.041,57.525s-47.627,48.891-82.267,42.693-44.536,1.843-50.723,8.648c0,0,4.666,7.422-2.615,11.133s-28.931,0-28.931,0l-8.659-22.886Z" fill="#007fde"/>
        <path id="Path_7" data-name="Path 7" d="M1548.581,580.608s134.536-44.537,161.444-27.835,2.784,82.577-7.423,127.113-38.969,188.51-40.825,218.121,6.495,45.494,6.495,45.494-120.62,20.521-145.67,0c0,0-10.207-86.4-19.485-131.861s-42.682-107.63-12.062-154.486S1548.581,580.608,1548.581,580.608Z" fill="#8d66c5"/>
        <path id="Path_8" data-name="Path 8" d="M1590.335,414.217s-33.4,80.412-15.464,90.928,32.164,7.422,33.4,16.7S1605.8,560.2,1605.8,560.2l-25.98,9.623s-17.671,46.048,20.546,44.81,65.973-63.65,65.973-63.65l-21.569,1.794,5.565-55.051s11.753-1.856,9.9-15.464-12.371-10.515-12.371-10.515l-4.331,9.278-5.565-39.587S1595.9,443.907,1590.335,414.217Z" fill="#2b225d"/>
        <path id="Path_9" data-name="Path 9" d="M1605.934,884.939s71.617-24.423,108.73-44.707S1794.457,793,1794.457,793h8.352s25.978,84.824,37.112,105.988,56.6,72.218,64.021,105.62a589.687,589.687,0,0,1,10.206,60.321s-57.25,28.256-115.051,46.4c-43.82,13.751-110.618,42.3-110.618,42.3Z" fill="#f7c154"/>
        <g id="Group_2" data-name="Group 2">
          <path id="Path_10" data-name="Path 10" d="M1660.2,970.037l11.021,42.472L1741,985.575l-19.043-41.435Z" fill="none" stroke="#fbfafc" stroke-miterlimit="10" stroke-width="2"/>
          <path id="Path_11" data-name="Path 11" d="M1773.115,908.432l47.65-20.229,20.717,42.128-63.188,13.811Z" fill="none" stroke="#fbfafc" stroke-miterlimit="10" stroke-width="2"/>
          <line id="Line_7" data-name="Line 7" x2="80.799" y2="15.538" transform="translate(1660.203 970.037)" fill="none" stroke="#fbfafc" stroke-miterlimit="10" stroke-width="2"/>
          <line id="Line_8" data-name="Line 8" x2="68.367" y2="21.899" transform="translate(1773.115 908.432)" fill="none" stroke="#fbfafc" stroke-miterlimit="10" stroke-width="2"/>
        </g>
        <path id="Path_12" data-name="Path 12" d="M1584,775.291V969l-18.872,8.111-.526.176-86.083-32.112L1478,812.583V768.04l.079-.083,15.776-10.007Z" fill="#fff"/>
        <path id="Path_13" data-name="Path 13" d="M1565,787.722V977.112l-.463.176-86.051-32.112L1478,812.583V768.04l.079-.083.2.083Z" fill="#68b27c"/>
        <path id="Path_14" data-name="Path 14" d="M1716.338,558.213c-16.765-7.222-51.563,17.712-61.768,52.464s-36.005,182.21-14.845,248.026,36.185,126.315,53.815,119.819-28.765-77.267-36.186-119.819-10.206-116.594-2.784-165.4,21.471-121.67,61.768-120.959c0,0,9.229-2.072,2.494,48.031s13.677,145.671,28.522,176.289,42.681,110.412,42.681,110.412,7.965,15.943,18.828,8.9-6.767-36.064-15.118-57.275-40.824-86.16-48.247-122.346-16.7-97.339-15.773-125.68S1733.566,565.636,1716.338,558.213Z" fill="#ef057e"/>
        <path id="Path_15" data-name="Path 15" d="M1718.035,569.538c-6.6-8.925-56.367,84.777-59.15,111.868s-11.135,160.747-11.135,160.747-31.545-11.182-57.525-13.037-68.551-.636-76.082-1.856-18.557-1.856-18.557-1.856-4.639-11.133-10.205-13.918-8.013-9.278-8.013-9.278-13.329,36.857,3.373,53.686,17.628,10.334,22.267,12.191,58.455,17.629,79.795,24.124,82.578,25.979,109.484,10.206S1744.254,605.015,1718.035,569.538Z" fill="#2b225d"/>
        <path id="Path_16" data-name="Path 16" d="M1589.764,455.319l-6.215,16.313,6.215,4.29" fill="none" stroke="#fbfafc" stroke-miterlimit="10" stroke-width="2"/>
        <path id="Path_17" data-name="Path 17" d="M1583.549,492.5s7.25,5.179,12.43,0" fill="none" stroke="#fbfafc" stroke-miterlimit="10" stroke-width="2"/>
        <path id="Path_18" data-name="Path 18" d="M1590.335,414.217s-13.931-23.237,0-42.92" fill="none" stroke="#29272c" stroke-miterlimit="10" stroke-width="2"/>
        <path id="Path_19" data-name="Path 19" d="M1484.092,765.018,1570,783.578V826" fill="none" stroke="#29272c" stroke-miterlimit="10" stroke-width="2"/>
        <line id="Line_9" data-name="Line 9" y1="87" transform="translate(1570 888)" fill="none" stroke="#29272c" stroke-miterlimit="10" stroke-width="2"/>
        <line id="Line_10" data-name="Line 10" y1="82" transform="translate(1579 891)" fill="none" stroke="#29272c" stroke-miterlimit="10" stroke-width="2"/>
        <path id="Path_20" data-name="Path 20" d="M1579,826V780.471l-92.193-20.742" fill="none" stroke="#29272c" stroke-miterlimit="10" stroke-width="2"/>
        <path id="Path_21" data-name="Path 21" d="M1498,897.525v23.825l51,13.467V901.669Z" fill="none" stroke="#29272c" stroke-miterlimit="10" stroke-width="2"/>
        <line id="Line_11" data-name="Line 11" x1="12.453" y1="5.649" transform="translate(1647.75 842.153)" fill="none" stroke="#fbfafc" stroke-miterlimit="10" stroke-width="2"/>
        <path id="Path_22" data-name="Path 22" d="M1569.578,574.044s-17.8,47.044,20.757,51.564c57.415,6.732,82.562-75.467,82.562-75.467" fill="none" stroke="#fbfafc" stroke-miterlimit="10" stroke-width="2"/>
      </g>
    </g>
  </g>
</svg>
